Seminario.knit
…
En 2020 continúa el descenso de la natalidad.

Hasta aquí cumplimos el primer objetivo ya que hemos representado gráficamente los valores de natalidad entre 2016 y 2020. Los resultado generales han demostrado que la natalidad se mantiene dentro de unos valores más o menos constantes a lo largo de los años aunque es importante recalcar que ha comenzado disminuir.

Aunque los valores de natalidad sean cada año un poco menores, Andalucía, Cataluña y Madrid son las comunidades con los niveles más altos y Ceuta y Melilla aquellas en los que se producen menos nacimientos.

Para tener una visión más global y ordenada de los datos de natalidad obtenemos la media de las natalidades de cada año: El primer paso es unir todas las tablas de natalidad en una sola y a continuación obtenemos una tabla nueva con la media de cada comunidad autónoma usando la función rbind.

natalidad <- rbind(X2016_2, X2017_2, X2018_2, X2019_2, X2020_2)
natalidad

## # A tibble: 1,140 x 4
##    `Comunidades autónomas` `Tipo de dato` Periodo Total
##    <fct>                   <chr>          <chr>   <dbl>
##  1 Andalucía               Dato base      2016M12  6497
##  2 Andalucía               Dato base      2016M11  6620
##  3 Andalucía               Dato base      2016M10  6874
##  4 Andalucía               Dato base      2016M09  7069
##  5 Andalucía               Dato base      2016M08  7061
##  6 Andalucía               Dato base      2016M07  6825
##  7 Andalucía               Dato base      2016M06  6279
##  8 Andalucía               Dato base      2016M05  6249
##  9 Andalucía               Dato base      2016M04  6053
## 10 Andalucía               Dato base      2016M03  6693
## # ... with 1,130 more rows
…
En esta gráfica podemos observar la media de la natalidad de las distintas comunidades y ciudades autónomas. Podemos ver que los resultados obtenidos en la media coinciden con los obtenidos en el resto de las tablas.Se sigue manteniendo que Andalucía, Cataluña, Madrid y Valencia son las que mayor natalidad tienen, mientras que las que menos son Ceuta y Melilla.

Objetivo 2: PIB.

Objetivo 3 : Comparar PIB

Objetivo 4 : Relaciónar PIB y natalidad.

left_join(x = nuevaNatalidad, y = PIB2)

## Joining, by = "Comunidades autónomas"

## # A tibble: 59 x 5
##    `Comunidades autónomas` nat_prom `Ramas de actividad`         periodo   Total
##    <chr>                      <dbl> <chr>                        <chr>     <dbl>
##  1 Andalucía                  5988. PRODUCTO INTERIOR BRUTO A P~ 2019     1.66e8
##  2 Andalucía                  5988. PRODUCTO INTERIOR BRUTO A P~ 2018 (~  1.61e8
##  3 Andalucía                  5988. PRODUCTO INTERIOR BRUTO A P~ 2017     1.55e8
##  4 Andalucía                  5988. PRODUCTO INTERIOR BRUTO A P~ 2016     1.48e8
##  5 Andalucía                  5988. PRODUCTO INTERIOR BRUTO A P~ 2015     1.45e8
##  6 Aragón                      835. PRODUCTO INTERIOR BRUTO A P~ 2019 (~  3.80e7
##  7 Aragón                      835. PRODUCTO INTERIOR BRUTO A P~ 2018 (~  3.69e7
##  8 Aragón                      835. PRODUCTO INTERIOR BRUTO A P~ 2017     3.56e7
##  9 Aragón                      835. PRODUCTO INTERIOR BRUTO A P~ 2016     3.42e7
## 10 Aragón                      835. PRODUCTO INTERIOR BRUTO A P~ 2015     3.29e7
## # ... with 49 more rows
…
